PS2/simulation/ps2_vcd.vcd
$date
	Fri Jun 11 08:01:28 2021
$end
$version
	ModelSim Version 10.4a
$end
$timescale
	1ps
$end

$scope module testbench $end
$var parameter 0 ! CLK_FREQ $end
$var parameter 0 " CLK_PERIOD $end
$var parameter 0 # CLK_HALF_PERIOD $end
$var reg 1 $ ps2_clk $end
$var reg 1 % ps2_data $end
$var reg 11 & ps2_data_parallel [0:10] $end
$upscope $end
$enddefinitions $end
#0
$dumpvars
1$
1%
b1010101011 &
r10000 !
r0.0001 "
r5e-005 #
$end
#500000000
0%
#550000000
0$
#600000000
1%
1$
#650000000
0$
#700000000
0%
1$
#750000000
0$
#800000000
1%
1$
#850000000
0$
#900000000
0%
1$
#950000000
0$
#1000000000
1%
1$
#1050000000
0$
#1100000000
0%
1$
#1150000000
0$
#1200000000
1%
1$
#1250000000
0$
#1300000000
0%
1$
#1350000000
0$
#1400000000
1%
1$
